{
    "name": "UPayment",
    "alias": "upayment",
    "description": "Integrates and Implements UPayment / Knet Gateway",
    "url": "",
    "version": "1.0",
    "keywords": [],
    "priority": 0,
    "providers": [
        "Plugins\\UPayment\\Providers\\UPaymentPluginProvider"
    ],
    "aliases": {},
    "files": ["Helpers/functions.php"],
    "requires": [],
    "author" : "Samer Moustafa",
    "author_url" : ""
}
