{
    "name": "Twilio",
    "alias": "twilio",
    "description": "Twilio API Services Integration",
    "keywords": [],
    "priority": 0,
    "providers": [
        "Modules\\Twilio\\Providers\\TwilioServiceProvider"
    ],
    "aliases": {},
    "files": [],
    "requires": []
}
