{
    "name": "Teams",
    "alias": "teams",
    "description": "Create and manage teams and groups of your users",
    "keywords": [],
    "priority": 0,
    "providers": [
        "Modules\\Teams\\Providers\\TeamsServiceProvider"
    ],
    "files": []
}
